{
    "paths": [
        ".gitignore",
        ".htaccess",
        "CHANGELOG.txt",
        "COPYRIGHT.txt",
        "INSTALL.mysql.txt",
        "INSTALL.pgsql.txt",
        "INSTALL.sqlite.txt",
        "INSTALL.txt",
        "LICENSE.txt",
        "MAINTAINERS.txt",
        "README.txt",
        "UPGRADE.txt",
        "authorize.php",
        "cron.php",
        "includes/actions.inc",
        "includes/ajax.inc",
        "includes/archiver.inc",
        "includes/authorize.inc",
        "includes/batch.inc",
        "includes/batch.queue.inc",
        "includes/bootstrap.inc",
        "includes/cache-install.inc",
        "includes/cache.inc",
        "includes/common.inc",
        "includes/database/database.inc",
        "includes/database/log.inc",
        "includes/database/mysql/database.inc",
        "includes/database/mysql/install.inc",
        "includes/database/mysql/query.inc",
        "includes/database/mysql/schema.inc",
        "includes/database/pgsql/database.inc",
        "includes/database/pgsql/install.inc",
        "includes/database/pgsql/query.inc",
        "includes/database/pgsql/schema.inc",
        "includes/database/pgsql/select.inc",
        "includes/database/prefetch.inc",
        "includes/database/query.inc",
        "includes/database/schema.inc",
        "includes/database/select.inc",
        "includes/database/sqlite/database.inc",
        "includes/database/sqlite/install.inc",
        "includes/database/sqlite/query.inc",
        "includes/database/sqlite/schema.inc",
        "includes/database/sqlite/select.inc",
        "includes/date.inc",
        "includes/entity.inc",
        "includes/errors.inc",
        "includes/file.inc",
        "includes/file.mimetypes.inc",
        "includes/filetransfer/filetransfer.inc",
        "includes/filetransfer/ftp.inc",
        "includes/filetransfer/local.inc",
        "includes/filetransfer/ssh.inc",
        "includes/form.inc",
        "includes/graph.inc",
        "includes/image.inc",
        "includes/install.core.inc",
        "includes/install.inc",
        "includes/iso.inc",
        "includes/json-encode.inc",
        "includes/language.inc",
        "includes/locale.inc",
        "includes/lock.inc",
        "includes/mail.inc",
        "includes/menu.inc",
        "includes/module.inc",
        "includes/pager.inc",
        "includes/password.inc",
        "includes/path.inc",
        "includes/registry.inc",
        "includes/session.inc",
        "includes/stream_wrappers.inc",
        "includes/tablesort.inc",
        "includes/theme.inc",
        "includes/theme.maintenance.inc",
        "includes/token.inc",
        "includes/unicode.entities.inc",
        "includes/unicode.inc",
        "includes/update.inc",
        "includes/updater.inc",
        "includes/utility.inc",
        "includes/xmlrpc.inc",
        "includes/xmlrpcs.inc",
        "index.php",
        "install.php",
        "misc/ajax.js",
        "misc/arrow-asc.png",
        "misc/arrow-desc.png",
        "misc/authorize.js",
        "misc/autocomplete.js",
        "misc/batch.js",
        "misc/collapse.js",
        "misc/configure.png",
        "misc/draggable.png",
        "misc/drupal.js",
        "misc/druplicon.png",
        "misc/farbtastic/farbtastic.css",
        "misc/farbtastic/farbtastic.js",
        "misc/farbtastic/marker.png",
        "misc/farbtastic/mask.png",
        "misc/farbtastic/wheel.png",
        "misc/favicon.ico",
        "misc/feed.png",
        "misc/form.js",
        "misc/forum-icons.png",
        "misc/grippie.png",
        "misc/help.png",
        "misc/jquery.ba-bbq.js",
        "misc/jquery.cookie.js",
        "misc/jquery.form.js",
        "misc/jquery.js",
        "misc/jquery.once.js",
        "misc/machine-name.js",
        "misc/menu-collapsed-rtl.png",
        "misc/menu-collapsed.png",
        "misc/menu-expanded.png",
        "misc/menu-leaf.png",
        "misc/message-16-error.png",
        "misc/message-16-help.png",
        "misc/message-16-info.png",
        "misc/message-16-ok.png",
        "misc/message-16-warning.png",
        "misc/message-24-error.png",
        "misc/message-24-help.png",
        "misc/message-24-info.png",
        "misc/message-24-ok.png",
        "misc/message-24-warning.png",
        "misc/permissions.png",
        "misc/powered-black-135x42.png",
        "misc/powered-black-80x15.png",
        "misc/powered-black-88x31.png",
        "misc/powered-blue-135x42.png",
        "misc/powered-blue-80x15.png",
        "misc/powered-blue-88x31.png",
        "misc/powered-gray-135x42.png",
        "misc/powered-gray-80x15.png",
        "misc/powered-gray-88x31.png",
        "misc/print-rtl.css",
        "misc/print.css",
        "misc/progress.gif",
        "misc/progress.js",
        "misc/states.js",
        "misc/tabledrag.js",
        "misc/tableheader.js",
        "misc/tableselect.js",
        "misc/textarea.js",
        "misc/throbber.gif",
        "misc/timezone.js",
        "misc/tree-bottom.png",
        "misc/tree.png",
        "misc/ui/images/ui-bg_flat_0_aaaaaa_40x100.png",
        "misc/ui/images/ui-bg_flat_75_ffffff_40x100.png",
        "misc/ui/images/ui-bg_glass_55_fbf9ee_1x400.png",
        "misc/ui/images/ui-bg_glass_65_ffffff_1x400.png",
        "misc/ui/images/ui-bg_glass_75_dadada_1x400.png",
        "misc/ui/images/ui-bg_glass_75_e6e6e6_1x400.png",
        "misc/ui/images/ui-bg_glass_95_fef1ec_1x400.png",
        "misc/ui/images/ui-bg_highlight-soft_75_cccccc_1x100.png",
        "misc/ui/images/ui-icons_222222_256x240.png",
        "misc/ui/images/ui-icons_2e83ff_256x240.png",
        "misc/ui/images/ui-icons_454545_256x240.png",
        "misc/ui/images/ui-icons_888888_256x240.png",
        "misc/ui/images/ui-icons_cd0a0a_256x240.png",
        "misc/ui/jquery.effects.blind.min.js",
        "misc/ui/jquery.effects.bounce.min.js",
        "misc/ui/jquery.effects.clip.min.js",
        "misc/ui/jquery.effects.core.min.js",
        "misc/ui/jquery.effects.drop.min.js",
        "misc/ui/jquery.effects.explode.min.js",
        "misc/ui/jquery.effects.fade.min.js",
        "misc/ui/jquery.effects.fold.min.js",
        "misc/ui/jquery.effects.highlight.min.js",
        "misc/ui/jquery.effects.pulsate.min.js",
        "misc/ui/jquery.effects.scale.min.js",
        "misc/ui/jquery.effects.shake.min.js",
        "misc/ui/jquery.effects.slide.min.js",
        "misc/ui/jquery.effects.transfer.min.js",
        "misc/ui/jquery.ui.accordion.css",
        "misc/ui/jquery.ui.accordion.min.js",
        "misc/ui/jquery.ui.autocomplete.css",
        "misc/ui/jquery.ui.autocomplete.min.js",
        "misc/ui/jquery.ui.button.css",
        "misc/ui/jquery.ui.button.min.js",
        "misc/ui/jquery.ui.core.css",
        "misc/ui/jquery.ui.core.min.js",
        "misc/ui/jquery.ui.datepicker.css",
        "misc/ui/jquery.ui.datepicker.min.js",
        "misc/ui/jquery.ui.dialog.css",
        "misc/ui/jquery.ui.dialog.min.js",
        "misc/ui/jquery.ui.draggable.min.js",
        "misc/ui/jquery.ui.droppable.min.js",
        "misc/ui/jquery.ui.mouse.min.js",
        "misc/ui/jquery.ui.position.min.js",
        "misc/ui/jquery.ui.progressbar.css",
        "misc/ui/jquery.ui.progressbar.min.js",
        "misc/ui/jquery.ui.resizable.css",
        "misc/ui/jquery.ui.resizable.min.js",
        "misc/ui/jquery.ui.selectable.css",
        "misc/ui/jquery.ui.selectable.min.js",
        "misc/ui/jquery.ui.slider.css",
        "misc/ui/jquery.ui.slider.min.js",
        "misc/ui/jquery.ui.sortable.min.js",
        "misc/ui/jquery.ui.tabs.css",
        "misc/ui/jquery.ui.tabs.min.js",
        "misc/ui/jquery.ui.theme.css",
        "misc/ui/jquery.ui.widget.min.js",
        "misc/vertical-tabs-rtl.css",
        "misc/vertical-tabs.css",
        "misc/vertical-tabs.js",
        "misc/watchdog-error.png",
        "misc/watchdog-ok.png",
        "misc/watchdog-warning.png",
        "modules/README.txt",
        "modules/aggregator/aggregator-feed-source.tpl.php",
        "modules/aggregator/aggregator-item.tpl.php",
        "modules/aggregator/aggregator-rtl.css",
        "modules/aggregator/aggregator-summary-item.tpl.php",
        "modules/aggregator/aggregator-summary-items.tpl.php",
        "modules/aggregator/aggregator-wrapper.tpl.php",
        "modules/aggregator/aggregator.admin.inc",
        "modules/aggregator/aggregator.api.php",
        "modules/aggregator/aggregator.css",
        "modules/aggregator/aggregator.fetcher.inc",
        "modules/aggregator/aggregator.info",
        "modules/aggregator/aggregator.install",
        "modules/aggregator/aggregator.module",
        "modules/aggregator/aggregator.pages.inc",
        "modules/aggregator/aggregator.parser.inc",
        "modules/aggregator/aggregator.processor.inc",
        "modules/aggregator/aggregator.test",
        "modules/aggregator/tests/aggregator_test.info",
        "modules/aggregator/tests/aggregator_test.module",
        "modules/aggregator/tests/aggregator_test_atom.xml",
        "modules/aggregator/tests/aggregator_test_rss091.xml",
        "modules/aggregator/tests/aggregator_test_title_entities.xml",
        "modules/block/block-admin-display-form.tpl.php",
        "modules/block/block.admin.inc",
        "modules/block/block.api.php",
        "modules/block/block.css",
        "modules/block/block.info",
        "modules/block/block.install",
        "modules/block/block.js",
        "modules/block/block.module",
        "modules/block/block.test",
        "modules/block/block.tpl.php",
        "modules/block/tests/block_test.info",
        "modules/block/tests/block_test.module",
        "modules/block/tests/themes/block_test_theme/block_test_theme.info",
        "modules/block/tests/themes/block_test_theme/page.tpl.php",
        "modules/blog/blog.info",
        "modules/blog/blog.install",
        "modules/blog/blog.module",
        "modules/blog/blog.pages.inc",
        "modules/blog/blog.test",
        "modules/book/book-all-books-block.tpl.php",
        "modules/book/book-export-html.tpl.php",
        "modules/book/book-navigation.tpl.php",
        "modules/book/book-node-export-html.tpl.php",
        "modules/book/book-rtl.css",
        "modules/book/book.admin.inc",
        "modules/book/book.css",
        "modules/book/book.info",
        "modules/book/book.install",
        "modules/book/book.js",
        "modules/book/book.module",
        "modules/book/book.pages.inc",
        "modules/book/book.test",
        "modules/color/color-rtl.css",
        "modules/color/color.css",
        "modules/color/color.info",
        "modules/color/color.install",
        "modules/color/color.js",
        "modules/color/color.module",
        "modules/color/color.test",
        "modules/color/images/hook-rtl.png",
        "modules/color/images/hook.png",
        "modules/color/images/lock.png",
        "modules/color/preview.html",
        "modules/color/preview.js",
        "modules/comment/comment-node-form.js",
        "modules/comment/comment-rtl.css",
        "modules/comment/comment-wrapper.tpl.php",
        "modules/comment/comment.admin.inc",
        "modules/comment/comment.api.php",
        "modules/comment/comment.css",
        "modules/comment/comment.info",
        "modules/comment/comment.install",
        "modules/comment/comment.module",
        "modules/comment/comment.pages.inc",
        "modules/comment/comment.test",
        "modules/comment/comment.tokens.inc",
        "modules/comment/comment.tpl.php",
        "modules/contact/contact.admin.inc",
        "modules/contact/contact.info",
        "modules/contact/contact.install",
        "modules/contact/contact.module",
        "modules/contact/contact.pages.inc",
        "modules/contact/contact.test",
        "modules/contextual/contextual-rtl.css",
        "modules/contextual/contextual.api.php",
        "modules/contextual/contextual.css",
        "modules/contextual/contextual.info",
        "modules/contextual/contextual.js",
        "modules/contextual/contextual.module",
        "modules/contextual/contextual.test",
        "modules/contextual/images/gear-select.png",
        "modules/dashboard/dashboard-rtl.css",
        "modules/dashboard/dashboard.api.php",
        "modules/dashboard/dashboard.css",
        "modules/dashboard/dashboard.info",
        "modules/dashboard/dashboard.install",
        "modules/dashboard/dashboard.js",
        "modules/dashboard/dashboard.module",
        "modules/dashboard/dashboard.test",
        "modules/dblog/dblog-rtl.css",
        "modules/dblog/dblog.admin.inc",
        "modules/dblog/dblog.css",
        "modules/dblog/dblog.info",
        "modules/dblog/dblog.install",
        "modules/dblog/dblog.module",
        "modules/dblog/dblog.test",
        "modules/field/field.api.php",
        "modules/field/field.attach.inc",
        "modules/field/field.crud.inc",
        "modules/field/field.default.inc",
        "modules/field/field.form.inc",
        "modules/field/field.info",
        "modules/field/field.info.class.inc",
        "modules/field/field.info.inc",
        "modules/field/field.install",
        "modules/field/field.module",
        "modules/field/field.multilingual.inc",
        "modules/field/modules/field_sql_storage/field_sql_storage.info",
        "modules/field/modules/field_sql_storage/field_sql_storage.install",
        "modules/field/modules/field_sql_storage/field_sql_storage.module",
        "modules/field/modules/field_sql_storage/field_sql_storage.test",
        "modules/field/modules/list/list.info",
        "modules/field/modules/list/list.install",
        "modules/field/modules/list/list.module",
        "modules/field/modules/list/tests/list.test",
        "modules/field/modules/list/tests/list_test.info",
        "modules/field/modules/list/tests/list_test.module",
        "modules/field/modules/number/number.info",
        "modules/field/modules/number/number.install",
        "modules/field/modules/number/number.module",
        "modules/field/modules/number/number.test",
        "modules/field/modules/options/options.api.php",
        "modules/field/modules/options/options.info",
        "modules/field/modules/options/options.module",
        "modules/field/modules/options/options.test",
        "modules/field/modules/text/text.info",
        "modules/field/modules/text/text.install",
        "modules/field/modules/text/text.js",
        "modules/field/modules/text/text.module",
        "modules/field/modules/text/text.test",
        "modules/field/tests/field.test",
        "modules/field/tests/field_test.entity.inc",
        "modules/field/tests/field_test.field.inc",
        "modules/field/tests/field_test.info",
        "modules/field/tests/field_test.install",
        "modules/field/tests/field_test.module",
        "modules/field/tests/field_test.storage.inc",
        "modules/field/theme/field-rtl.css",
        "modules/field/theme/field.css",
        "modules/field/theme/field.tpl.php",
        "modules/field_ui/field_ui-rtl.css",
        "modules/field_ui/field_ui.admin.inc",
        "modules/field_ui/field_ui.api.php",
        "modules/field_ui/field_ui.css",
        "modules/field_ui/field_ui.info",
        "modules/field_ui/field_ui.js",
        "modules/field_ui/field_ui.module",
        "modules/field_ui/field_ui.test",
        "modules/file/file.api.php",
        "modules/file/file.css",
        "modules/file/file.field.inc",
        "modules/file/file.info",
        "modules/file/file.install",
        "modules/file/file.js",
        "modules/file/file.module",
        "modules/file/icons/application-octet-stream.png",
        "modules/file/icons/application-pdf.png",
        "modules/file/icons/application-x-executable.png",
        "modules/file/icons/audio-x-generic.png",
        "modules/file/icons/image-x-generic.png",
        "modules/file/icons/package-x-generic.png",
        "modules/file/icons/text-html.png",
        "modules/file/icons/text-plain.png",
        "modules/file/icons/text-x-generic.png",
        "modules/file/icons/text-x-script.png",
        "modules/file/icons/video-x-generic.png",
        "modules/file/icons/x-office-document.png",
        "modules/file/icons/x-office-presentation.png",
        "modules/file/icons/x-office-spreadsheet.png",
        "modules/file/tests/file.test",
        "modules/file/tests/file_module_test.info",
        "modules/file/tests/file_module_test.module",
        "modules/filter/filter.admin.inc",
        "modules/filter/filter.admin.js",
        "modules/filter/filter.api.php",
        "modules/filter/filter.css",
        "modules/filter/filter.info",
        "modules/filter/filter.install",
        "modules/filter/filter.js",
        "modules/filter/filter.module",
        "modules/filter/filter.pages.inc",
        "modules/filter/filter.test",
        "modules/filter/tests/filter.url-input.txt",
        "modules/filter/tests/filter.url-output.txt",
        "modules/forum/forum-icon.tpl.php",
        "modules/forum/forum-list.tpl.php",
        "modules/forum/forum-rtl.css",
        "modules/forum/forum-submitted.tpl.php",
        "modules/forum/forum-topic-list.tpl.php",
        "modules/forum/forum.admin.inc",
        "modules/forum/forum.css",
        "modules/forum/forum.info",
        "modules/forum/forum.install",
        "modules/forum/forum.module",
        "modules/forum/forum.pages.inc",
        "modules/forum/forum.test",
        "modules/forum/forums.tpl.php",
        "modules/help/help-rtl.css",
        "modules/help/help.admin.inc",
        "modules/help/help.css",
        "modules/help/help.info",
        "modules/help/help.module",
        "modules/help/help.test",
        "modules/image/image-rtl.css",
        "modules/image/image.admin.css",
        "modules/image/image.admin.inc",
        "modules/image/image.api.php",
        "modules/image/image.css",
        "modules/image/image.effects.inc",
        "modules/image/image.field.inc",
        "modules/image/image.info",
        "modules/image/image.install",
        "modules/image/image.module",
        "modules/image/image.test",
        "modules/image/sample.png",
        "modules/image/tests/image_module_test.info",
        "modules/image/tests/image_module_test.module",
        "modules/locale/locale-rtl.css",
        "modules/locale/locale.admin.inc",
        "modules/locale/locale.api.php",
        "modules/locale/locale.css",
        "modules/locale/locale.datepicker.js",
        "modules/locale/locale.info",
        "modules/locale/locale.install",
        "modules/locale/locale.module",
        "modules/locale/locale.test",
        "modules/locale/tests/locale_test.info",
        "modules/locale/tests/locale_test.js",
        "modules/locale/tests/locale_test.module",
        "modules/locale/tests/translations/test.xx.po",
        "modules/menu/menu.admin.inc",
        "modules/menu/menu.admin.js",
        "modules/menu/menu.api.php",
        "modules/menu/menu.css",
        "modules/menu/menu.info",
        "modules/menu/menu.install",
        "modules/menu/menu.js",
        "modules/menu/menu.module",
        "modules/menu/menu.test",
        "modules/node/content_types.inc",
        "modules/node/content_types.js",
        "modules/node/node.admin.inc",
        "modules/node/node.api.php",
        "modules/node/node.css",
        "modules/node/node.info",
        "modules/node/node.install",
        "modules/node/node.js",
        "modules/node/node.module",
        "modules/node/node.pages.inc",
        "modules/node/node.test",
        "modules/node/node.tokens.inc",
        "modules/node/node.tpl.php",
        "modules/node/tests/node_access_test.info",
        "modules/node/tests/node_access_test.install",
        "modules/node/tests/node_access_test.module",
        "modules/node/tests/node_test.info",
        "modules/node/tests/node_test.module",
        "modules/node/tests/node_test_exception.info",
        "modules/node/tests/node_test_exception.module",
        "modules/openid/login-bg.png",
        "modules/openid/openid-rtl.css",
        "modules/openid/openid.api.php",
        "modules/openid/openid.css",
        "modules/openid/openid.inc",
        "modules/openid/openid.info",
        "modules/openid/openid.install",
        "modules/openid/openid.js",
        "modules/openid/openid.module",
        "modules/openid/openid.pages.inc",
        "modules/openid/openid.test",
        "modules/openid/tests/openid_test.info",
        "modules/openid/tests/openid_test.install",
        "modules/openid/tests/openid_test.module",
        "modules/overlay/images/background.png",
        "modules/overlay/images/close-rtl.png",
        "modules/overlay/images/close.png",
        "modules/overlay/overlay-child-rtl.css",
        "modules/overlay/overlay-child.css",
        "modules/overlay/overlay-child.js",
        "modules/overlay/overlay-parent.css",
        "modules/overlay/overlay-parent.js",
        "modules/overlay/overlay.api.php",
        "modules/overlay/overlay.info",
        "modules/overlay/overlay.install",
        "modules/overlay/overlay.module",
        "modules/overlay/overlay.tpl.php",
        "modules/path/path.admin.inc",
        "modules/path/path.api.php",
        "modules/path/path.info",
        "modules/path/path.js",
        "modules/path/path.module",
        "modules/path/path.test",
        "modules/php/php.info",
        "modules/php/php.install",
        "modules/php/php.module",
        "modules/php/php.test",
        "modules/poll/poll-bar--block.tpl.php",
        "modules/poll/poll-bar.tpl.php",
        "modules/poll/poll-results--block.tpl.php",
        "modules/poll/poll-results.tpl.php",
        "modules/poll/poll-rtl.css",
        "modules/poll/poll-vote.tpl.php",
        "modules/poll/poll.css",
        "modules/poll/poll.info",
        "modules/poll/poll.install",
        "modules/poll/poll.module",
        "modules/poll/poll.pages.inc",
        "modules/poll/poll.test",
        "modules/poll/poll.tokens.inc",
        "modules/profile/profile-block.tpl.php",
        "modules/profile/profile-listing.tpl.php",
        "modules/profile/profile-wrapper.tpl.php",
        "modules/profile/profile.admin.inc",
        "modules/profile/profile.css",
        "modules/profile/profile.info",
        "modules/profile/profile.install",
        "modules/profile/profile.js",
        "modules/profile/profile.module",
        "modules/profile/profile.pages.inc",
        "modules/profile/profile.test",
        "modules/rdf/rdf.api.php",
        "modules/rdf/rdf.info",
        "modules/rdf/rdf.install",
        "modules/rdf/rdf.module",
        "modules/rdf/rdf.test",
        "modules/rdf/tests/rdf_test.info",
        "modules/rdf/tests/rdf_test.install",
        "modules/rdf/tests/rdf_test.module",
        "modules/search/search-block-form.tpl.php",
        "modules/search/search-result.tpl.php",
        "modules/search/search-results.tpl.php",
        "modules/search/search-rtl.css",
        "modules/search/search.admin.inc",
        "modules/search/search.api.php",
        "modules/search/search.css",
        "modules/search/search.extender.inc",
        "modules/search/search.info",
        "modules/search/search.install",
        "modules/search/search.module",
        "modules/search/search.pages.inc",
        "modules/search/search.test",
        "modules/search/tests/UnicodeTest.txt",
        "modules/search/tests/search_embedded_form.info",
        "modules/search/tests/search_embedded_form.module",
        "modules/search/tests/search_extra_type.info",
        "modules/search/tests/search_extra_type.module",
        "modules/shortcut/shortcut-rtl.css",
        "modules/shortcut/shortcut.admin.css",
        "modules/shortcut/shortcut.admin.inc",
        "modules/shortcut/shortcut.admin.js",
        "modules/shortcut/shortcut.api.php",
        "modules/shortcut/shortcut.css",
        "modules/shortcut/shortcut.info",
        "modules/shortcut/shortcut.install",
        "modules/shortcut/shortcut.module",
        "modules/shortcut/shortcut.png",
        "modules/shortcut/shortcut.test",
        "modules/simpletest/drupal_web_test_case.php",
        "modules/simpletest/files/README.txt",
        "modules/simpletest/files/css_test_files/comment_hacks.css",
        "modules/simpletest/files/css_test_files/comment_hacks.css.optimized.css",
        "modules/simpletest/files/css_test_files/comment_hacks.css.unoptimized.css",
        "modules/simpletest/files/css_test_files/css_input_with_import.css",
        "modules/simpletest/files/css_test_files/css_input_with_import.css.optimized.css",
        "modules/simpletest/files/css_test_files/css_input_with_import.css.unoptimized.css",
        "modules/simpletest/files/css_test_files/css_input_without_import.css",
        "modules/simpletest/files/css_test_files/css_input_without_import.css.optimized.css",
        "modules/simpletest/files/css_test_files/css_input_without_import.css.unoptimized.css",
        "modules/simpletest/files/css_test_files/css_subfolder/css_input_with_import.css",
        "modules/simpletest/files/css_test_files/css_subfolder/css_input_with_import.css.optimized.css",
        "modules/simpletest/files/css_test_files/css_subfolder/css_input_with_import.css.unoptimized.css",
        "modules/simpletest/files/css_test_files/import1.css",
        "modules/simpletest/files/css_test_files/import2.css",
        "modules/simpletest/files/html-1.txt",
        "modules/simpletest/files/html-2.html",
        "modules/simpletest/files/image-1.png",
        "modules/simpletest/files/image-2.jpg",
        "modules/simpletest/files/image-test.gif",
        "modules/simpletest/files/image-test.jpg",
        "modules/simpletest/files/image-test.png",
        "modules/simpletest/files/javascript-1.txt",
        "modules/simpletest/files/javascript-2.script",
        "modules/simpletest/files/php-1.txt",
        "modules/simpletest/files/php-2.php",
        "modules/simpletest/files/sql-1.txt",
        "modules/simpletest/files/sql-2.sql",
        "modules/simpletest/lib/Drupal/simpletest/Tests/PSR0WebTest.php",
        "modules/simpletest/simpletest.api.php",
        "modules/simpletest/simpletest.css",
        "modules/simpletest/simpletest.info",
        "modules/simpletest/simpletest.install",
        "modules/simpletest/simpletest.js",
        "modules/simpletest/simpletest.module",
        "modules/simpletest/simpletest.pages.inc",
        "modules/simpletest/simpletest.test",
        "modules/simpletest/tests/actions.test",
        "modules/simpletest/tests/actions_loop_test.info",
        "modules/simpletest/tests/actions_loop_test.install",
        "modules/simpletest/tests/actions_loop_test.module",
        "modules/simpletest/tests/ajax.test",
        "modules/simpletest/tests/ajax_forms_test.info",
        "modules/simpletest/tests/ajax_forms_test.module",
        "modules/simpletest/tests/ajax_test.info",
        "modules/simpletest/tests/ajax_test.module",
        "modules/simpletest/tests/batch.test",
        "modules/simpletest/tests/batch_test.callbacks.inc",
        "modules/simpletest/tests/batch_test.info",
        "modules/simpletest/tests/batch_test.module",
        "modules/simpletest/tests/bootstrap.test",
        "modules/simpletest/tests/cache.test",
        "modules/simpletest/tests/common.test",
        "modules/simpletest/tests/common_test.css",
        "modules/simpletest/tests/common_test.info",
        "modules/simpletest/tests/common_test.module",
        "modules/simpletest/tests/common_test.print.css",
        "modules/simpletest/tests/common_test_cron_helper.info",
        "modules/simpletest/tests/common_test_cron_helper.module",
        "modules/simpletest/tests/common_test_info.txt",
        "modules/simpletest/tests/database_test.info",
        "modules/simpletest/tests/database_test.install",
        "modules/simpletest/tests/database_test.module",
        "modules/simpletest/tests/database_test.test",
        "modules/simpletest/tests/drupal_system_listing_compatible_test/drupal_system_listing_compatible_test.info",
        "modules/simpletest/tests/drupal_system_listing_compatible_test/drupal_system_listing_compatible_test.module",
        "modules/simpletest/tests/drupal_system_listing_incompatible_test/drupal_system_listing_incompatible_test.info",
        "modules/simpletest/tests/drupal_system_listing_incompatible_test/drupal_system_listing_incompatible_test.module",
        "modules/simpletest/tests/entity_cache_test.info",
        "modules/simpletest/tests/entity_cache_test.module",
        "modules/simpletest/tests/entity_cache_test_dependency.info",
        "modules/simpletest/tests/entity_cache_test_dependency.module",
        "modules/simpletest/tests/entity_crud.test",
        "modules/simpletest/tests/entity_crud_hook_test.info",
        "modules/simpletest/tests/entity_crud_hook_test.module",
        "modules/simpletest/tests/entity_crud_hook_test.test",
        "modules/simpletest/tests/entity_query.test",
        "modules/simpletest/tests/entity_query_access_test.info",
        "modules/simpletest/tests/entity_query_access_test.module",
        "modules/simpletest/tests/error.test",
        "modules/simpletest/tests/error_test.info",
        "modules/simpletest/tests/error_test.module",
        "modules/simpletest/tests/file.test",
        "modules/simpletest/tests/file_test.info",
        "modules/simpletest/tests/file_test.module",
        "modules/simpletest/tests/filetransfer.test",
        "modules/simpletest/tests/filter_test.info",
        "modules/simpletest/tests/filter_test.module",
        "modules/simpletest/tests/form.test",
        "modules/simpletest/tests/form_test.file.inc",
        "modules/simpletest/tests/form_test.info",
        "modules/simpletest/tests/form_test.module",
        "modules/simpletest/tests/graph.test",
        "modules/simpletest/tests/http.php",
        "modules/simpletest/tests/https.php",
        "modules/simpletest/tests/image.test",
        "modules/simpletest/tests/image_test.info",
        "modules/simpletest/tests/image_test.module",
        "modules/simpletest/tests/lock.test",
        "modules/simpletest/tests/mail.test",
        "modules/simpletest/tests/menu.test",
        "modules/simpletest/tests/menu_test.info",
        "modules/simpletest/tests/menu_test.module",
        "modules/simpletest/tests/module.test",
        "modules/simpletest/tests/module_test.file.inc",
        "modules/simpletest/tests/module_test.info",
        "modules/simpletest/tests/module_test.install",
        "modules/simpletest/tests/module_test.module",
        "modules/simpletest/tests/pager.test",
        "modules/simpletest/tests/password.test",
        "modules/simpletest/tests/path.test",
        "modules/simpletest/tests/path_test.info",
        "modules/simpletest/tests/path_test.module",
        "modules/simpletest/tests/psr_0_test/lib/Drupal/psr_0_test/Tests/ExampleTest.php",
        "modules/simpletest/tests/psr_0_test/lib/Drupal/psr_0_test/Tests/Nested/NestedExampleTest.php",
        "modules/simpletest/tests/psr_0_test/psr_0_test.info",
        "modules/simpletest/tests/psr_0_test/psr_0_test.module",
        "modules/simpletest/tests/registry.test",
        "modules/simpletest/tests/requirements1_test.info",
        "modules/simpletest/tests/requirements1_test.install",
        "modules/simpletest/tests/requirements1_test.module",
        "modules/simpletest/tests/requirements2_test.info",
        "modules/simpletest/tests/requirements2_test.module",
        "modules/simpletest/tests/schema.test",
        "modules/simpletest/tests/session.test",
        "modules/simpletest/tests/session_test.info",
        "modules/simpletest/tests/session_test.module",
        "modules/simpletest/tests/system.base.css",
        "modules/simpletest/tests/system_dependencies_test.info",
        "modules/simpletest/tests/system_dependencies_test.module",
        "modules/simpletest/tests/system_incompatible_core_version_dependencies_test.info",
        "modules/simpletest/tests/system_incompatible_core_version_dependencies_test.module",
        "modules/simpletest/tests/system_incompatible_core_version_test.info",
        "modules/simpletest/tests/system_incompatible_core_version_test.module",
        "modules/simpletest/tests/system_incompatible_module_version_dependencies_test.info",
        "modules/simpletest/tests/system_incompatible_module_version_dependencies_test.module",
        "modules/simpletest/tests/system_incompatible_module_version_test.info",
        "modules/simpletest/tests/system_incompatible_module_version_test.module",
        "modules/simpletest/tests/system_test.info",
        "modules/simpletest/tests/system_test.module",
        "modules/simpletest/tests/tablesort.test",
        "modules/simpletest/tests/taxonomy_test.info",
        "modules/simpletest/tests/taxonomy_test.install",
        "modules/simpletest/tests/taxonomy_test.module",
        "modules/simpletest/tests/theme.test",
        "modules/simpletest/tests/theme_test.inc",
        "modules/simpletest/tests/theme_test.info",
        "modules/simpletest/tests/theme_test.module",
        "modules/simpletest/tests/theme_test.template_test.tpl.php",
        "modules/simpletest/tests/themes/test_basetheme/test_basetheme.info",
        "modules/simpletest/tests/themes/test_subtheme/test_subtheme.info",
        "modules/simpletest/tests/themes/test_theme/template.php",
        "modules/simpletest/tests/themes/test_theme/test_theme.info",
        "modules/simpletest/tests/unicode.test",
        "modules/simpletest/tests/update.test",
        "modules/simpletest/tests/update_script_test.info",
        "modules/simpletest/tests/update_script_test.install",
        "modules/simpletest/tests/update_script_test.module",
        "modules/simpletest/tests/update_test_1.info",
        "modules/simpletest/tests/update_test_1.install",
        "modules/simpletest/tests/update_test_1.module",
        "modules/simpletest/tests/update_test_2.info",
        "modules/simpletest/tests/update_test_2.install",
        "modules/simpletest/tests/update_test_2.module",
        "modules/simpletest/tests/update_test_3.info",
        "modules/simpletest/tests/update_test_3.install",
        "modules/simpletest/tests/update_test_3.module",
        "modules/simpletest/tests/upgrade/drupal-6.bare.database.php",
        "modules/simpletest/tests/upgrade/drupal-6.comments.database.php",
        "modules/simpletest/tests/upgrade/drupal-6.duplicate-permission.database.php",
        "modules/simpletest/tests/upgrade/drupal-6.filled.database.php",
        "modules/simpletest/tests/upgrade/drupal-6.forum.database.php",
        "modules/simpletest/tests/upgrade/drupal-6.locale.database.php",
        "modules/simpletest/tests/upgrade/drupal-6.menu.database.php",
        "modules/simpletest/tests/upgrade/drupal-6.node_type_broken.database.php",
        "modules/simpletest/tests/upgrade/drupal-6.translatable.database.php",
        "modules/simpletest/tests/upgrade/drupal-6.trigger.database.php",
        "modules/simpletest/tests/upgrade/drupal-6.upload.database.php",
        "modules/simpletest/tests/upgrade/drupal-6.user-no-password-token.database.php",
        "modules/simpletest/tests/upgrade/drupal-6.user-password-token.database.php",
        "modules/simpletest/tests/upgrade/drupal-7.aggregator.database.php",
        "modules/simpletest/tests/upgrade/drupal-7.bare.minimal.database.php.gz",
        "modules/simpletest/tests/upgrade/drupal-7.bare.standard_all.database.php.gz",
        "modules/simpletest/tests/upgrade/drupal-7.field.database.php",
        "modules/simpletest/tests/upgrade/drupal-7.filled.minimal.database.php.gz",
        "modules/simpletest/tests/upgrade/drupal-7.filled.standard_all.database.php.gz",
        "modules/simpletest/tests/upgrade/drupal-7.trigger.database.php",
        "modules/simpletest/tests/upgrade/update.aggregator.test",
        "modules/simpletest/tests/upgrade/update.field.test",
        "modules/simpletest/tests/upgrade/update.trigger.test",
        "modules/simpletest/tests/upgrade/update.user.test",
        "modules/simpletest/tests/upgrade/upgrade.comment.test",
        "modules/simpletest/tests/upgrade/upgrade.filter.test",
        "modules/simpletest/tests/upgrade/upgrade.forum.test",
        "modules/simpletest/tests/upgrade/upgrade.locale.test",
        "modules/simpletest/tests/upgrade/upgrade.menu.test",
        "modules/simpletest/tests/upgrade/upgrade.node.test",
        "modules/simpletest/tests/upgrade/upgrade.poll.test",
        "modules/simpletest/tests/upgrade/upgrade.taxonomy.test",
        "modules/simpletest/tests/upgrade/upgrade.test",
        "modules/simpletest/tests/upgrade/upgrade.translatable.test",
        "modules/simpletest/tests/upgrade/upgrade.trigger.test",
        "modules/simpletest/tests/upgrade/upgrade.upload.test",
        "modules/simpletest/tests/upgrade/upgrade.user.test",
        "modules/simpletest/tests/url_alter_test.info",
        "modules/simpletest/tests/url_alter_test.install",
        "modules/simpletest/tests/url_alter_test.module",
        "modules/simpletest/tests/xmlrpc.test",
        "modules/simpletest/tests/xmlrpc_test.info",
        "modules/simpletest/tests/xmlrpc_test.module",
        "modules/statistics/statistics.admin.inc",
        "modules/statistics/statistics.info",
        "modules/statistics/statistics.install",
        "modules/statistics/statistics.js",
        "modules/statistics/statistics.module",
        "modules/statistics/statistics.pages.inc",
        "modules/statistics/statistics.php",
        "modules/statistics/statistics.test",
        "modules/statistics/statistics.tokens.inc",
        "modules/syslog/syslog.info",
        "modules/syslog/syslog.install",
        "modules/syslog/syslog.module",
        "modules/syslog/syslog.test",
        "modules/system/form.api.php",
        "modules/system/html.tpl.php",
        "modules/system/image.gd.inc",
        "modules/system/language.api.php",
        "modules/system/maintenance-page.tpl.php",
        "modules/system/page.tpl.php",
        "modules/system/region.tpl.php",
        "modules/system/system.admin-rtl.css",
        "modules/system/system.admin.css",
        "modules/system/system.admin.inc",
        "modules/system/system.api.php",
        "modules/system/system.archiver.inc",
        "modules/system/system.base-rtl.css",
        "modules/system/system.base.css",
        "modules/system/system.cron.js",
        "modules/system/system.info",
        "modules/system/system.install",
        "modules/system/system.js",
        "modules/system/system.mail.inc",
        "modules/system/system.maintenance.css",
        "modules/system/system.menus-rtl.css",
        "modules/system/system.menus.css",
        "modules/system/system.messages-rtl.css",
        "modules/system/system.messages.css",
        "modules/system/system.module",
        "modules/system/system.queue.inc",
        "modules/system/system.tar.inc",
        "modules/system/system.test",
        "modules/system/system.theme-rtl.css",
        "modules/system/system.theme.css",
        "modules/system/system.tokens.inc",
        "modules/system/system.updater.inc",
        "modules/system/tests/cron_queue_test.info",
        "modules/system/tests/cron_queue_test.module",
        "modules/system/theme.api.php",
        "modules/taxonomy/taxonomy-term.tpl.php",
        "modules/taxonomy/taxonomy.admin.inc",
        "modules/taxonomy/taxonomy.api.php",
        "modules/taxonomy/taxonomy.css",
        "modules/taxonomy/taxonomy.info",
        "modules/taxonomy/taxonomy.install",
        "modules/taxonomy/taxonomy.js",
        "modules/taxonomy/taxonomy.module",
        "modules/taxonomy/taxonomy.pages.inc",
        "modules/taxonomy/taxonomy.test",
        "modules/taxonomy/taxonomy.tokens.inc",
        "modules/toolbar/toolbar-rtl.css",
        "modules/toolbar/toolbar.css",
        "modules/toolbar/toolbar.info",
        "modules/toolbar/toolbar.js",
        "modules/toolbar/toolbar.module",
        "modules/toolbar/toolbar.png",
        "modules/toolbar/toolbar.tpl.php",
        "modules/tracker/tracker.css",
        "modules/tracker/tracker.info",
        "modules/tracker/tracker.install",
        "modules/tracker/tracker.module",
        "modules/tracker/tracker.pages.inc",
        "modules/tracker/tracker.test",
        "modules/translation/tests/translation_test.info",
        "modules/translation/tests/translation_test.module",
        "modules/translation/translation.info",
        "modules/translation/translation.module",
        "modules/translation/translation.pages.inc",
        "modules/translation/translation.test",
        "modules/trigger/tests/trigger_test.info",
        "modules/trigger/tests/trigger_test.module",
        "modules/trigger/trigger.admin.inc",
        "modules/trigger/trigger.api.php",
        "modules/trigger/trigger.info",
        "modules/trigger/trigger.install",
        "modules/trigger/trigger.module",
        "modules/trigger/trigger.test",
        "modules/update/tests/aaa_update_test.1_0.xml",
        "modules/update/tests/aaa_update_test.info",
        "modules/update/tests/aaa_update_test.module",
        "modules/update/tests/aaa_update_test.no-releases.xml",
        "modules/update/tests/aaa_update_test.tar.gz",
        "modules/update/tests/bbb_update_test.1_0.xml",
        "modules/update/tests/bbb_update_test.info",
        "modules/update/tests/bbb_update_test.module",
        "modules/update/tests/ccc_update_test.1_0.xml",
        "modules/update/tests/ccc_update_test.info",
        "modules/update/tests/ccc_update_test.module",
        "modules/update/tests/drupal.0.xml",
        "modules/update/tests/drupal.1.xml",
        "modules/update/tests/drupal.2-sec.xml",
        "modules/update/tests/drupal.dev.xml",
        "modules/update/tests/themes/update_test_basetheme/update_test_basetheme.info",
        "modules/update/tests/themes/update_test_subtheme/update_test_subtheme.info",
        "modules/update/tests/update_test.info",
        "modules/update/tests/update_test.module",
        "modules/update/tests/update_test_basetheme.1_1-sec.xml",
        "modules/update/tests/update_test_subtheme.1_0.xml",
        "modules/update/update-rtl.css",
        "modules/update/update.api.php",
        "modules/update/update.authorize.inc",
        "modules/update/update.compare.inc",
        "modules/update/update.css",
        "modules/update/update.fetch.inc",
        "modules/update/update.info",
        "modules/update/update.install",
        "modules/update/update.manager.inc",
        "modules/update/update.module",
        "modules/update/update.report.inc",
        "modules/update/update.settings.inc",
        "modules/update/update.test",
        "modules/user/tests/user_form_test.info",
        "modules/user/tests/user_form_test.module",
        "modules/user/user-picture.tpl.php",
        "modules/user/user-profile-category.tpl.php",
        "modules/user/user-profile-item.tpl.php",
        "modules/user/user-profile.tpl.php",
        "modules/user/user-rtl.css",
        "modules/user/user.admin.inc",
        "modules/user/user.api.php",
        "modules/user/user.css",
        "modules/user/user.info",
        "modules/user/user.install",
        "modules/user/user.js",
        "modules/user/user.module",
        "modules/user/user.pages.inc",
        "modules/user/user.permissions.js",
        "modules/user/user.test",
        "modules/user/user.tokens.inc",
        "profiles/minimal/minimal.info",
        "profiles/minimal/minimal.install",
        "profiles/minimal/minimal.profile",
        "profiles/minimal/translations/README.txt",
        "profiles/standard/standard.info",
        "profiles/standard/standard.install",
        "profiles/standard/standard.profile",
        "profiles/standard/translations/README.txt",
        "profiles/testing/modules/drupal_system_listing_compatible_test/drupal_system_listing_compatible_test.info",
        "profiles/testing/modules/drupal_system_listing_compatible_test/drupal_system_listing_compatible_test.module",
        "profiles/testing/modules/drupal_system_listing_compatible_test/drupal_system_listing_compatible_test.test",
        "profiles/testing/modules/drupal_system_listing_incompatible_test/drupal_system_listing_incompatible_test.info",
        "profiles/testing/modules/drupal_system_listing_incompatible_test/drupal_system_listing_incompatible_test.module",
        "profiles/testing/testing.info",
        "profiles/testing/testing.install",
        "profiles/testing/testing.profile",
        "robots.txt",
        "scripts/code-clean.sh",
        "scripts/cron-curl.sh",
        "scripts/cron-lynx.sh",
        "scripts/drupal.sh",
        "scripts/dump-database-d6.sh",
        "scripts/dump-database-d7.sh",
        "scripts/generate-d6-content.sh",
        "scripts/generate-d7-content.sh",
        "scripts/password-hash.sh",
        "scripts/run-tests.sh",
        "scripts/test.script",
        "sites/README.txt",
        "sites/all/modules/README.txt",
        "sites/all/themes/README.txt",
        "sites/default/default.settings.php",
        "sites/example.sites.php",
        "themes/README.txt",
        "themes/bartik/bartik.info",
        "themes/bartik/color/base.png",
        "themes/bartik/color/color.inc",
        "themes/bartik/color/preview.css",
        "themes/bartik/color/preview.html",
        "themes/bartik/color/preview.js",
        "themes/bartik/color/preview.png",
        "themes/bartik/css/colors.css",
        "themes/bartik/css/ie-rtl.css",
        "themes/bartik/css/ie.css",
        "themes/bartik/css/ie6.css",
        "themes/bartik/css/layout-rtl.css",
        "themes/bartik/css/layout.css",
        "themes/bartik/css/maintenance-page.css",
        "themes/bartik/css/print.css",
        "themes/bartik/css/style-rtl.css",
        "themes/bartik/css/style.css",
        "themes/bartik/images/add.png",
        "themes/bartik/images/buttons.png",
        "themes/bartik/images/comment-arrow-rtl.gif",
        "themes/bartik/images/comment-arrow.gif",
        "themes/bartik/images/search-button.png",
        "themes/bartik/images/tabs-border.png",
        "themes/bartik/logo.png",
        "themes/bartik/screenshot.png",
        "themes/bartik/template.php",
        "themes/bartik/templates/comment-wrapper.tpl.php",
        "themes/bartik/templates/comment.tpl.php",
        "themes/bartik/templates/maintenance-page.tpl.php",
        "themes/bartik/templates/node.tpl.php",
        "themes/bartik/templates/page.tpl.php",
        "themes/engines/phptemplate/phptemplate.engine",
        "themes/garland/color/base.png",
        "themes/garland/color/color.inc",
        "themes/garland/color/preview.css",
        "themes/garland/color/preview.png",
        "themes/garland/comment.tpl.php",
        "themes/garland/fix-ie-rtl.css",
        "themes/garland/fix-ie.css",
        "themes/garland/garland.info",
        "themes/garland/images/bg-bar-white.png",
        "themes/garland/images/bg-bar.png",
        "themes/garland/images/bg-content-left.png",
        "themes/garland/images/bg-content-right.png",
        "themes/garland/images/bg-content.png",
        "themes/garland/images/bg-navigation-item-hover.png",
        "themes/garland/images/bg-navigation-item.png",
        "themes/garland/images/bg-navigation.png",
        "themes/garland/images/bg-tab.png",
        "themes/garland/images/body.png",
        "themes/garland/images/gradient-inner.png",
        "themes/garland/images/menu-collapsed-rtl.gif",
        "themes/garland/images/menu-collapsed.gif",
        "themes/garland/images/menu-expanded.gif",
        "themes/garland/images/menu-leaf.gif",
        "themes/garland/images/task-list.png",
        "themes/garland/logo.png",
        "themes/garland/maintenance-page.tpl.php",
        "themes/garland/node.tpl.php",
        "themes/garland/page.tpl.php",
        "themes/garland/print.css",
        "themes/garland/screenshot.png",
        "themes/garland/style-rtl.css",
        "themes/garland/style.css",
        "themes/garland/template.php",
        "themes/garland/theme-settings.php",
        "themes/seven/ie.css",
        "themes/seven/ie6.css",
        "themes/seven/ie7.css",
        "themes/seven/images/add.png",
        "themes/seven/images/arrow-asc.png",
        "themes/seven/images/arrow-desc.png",
        "themes/seven/images/arrow-next.png",
        "themes/seven/images/arrow-prev.png",
        "themes/seven/images/buttons.png",
        "themes/seven/images/fc-rtl.png",
        "themes/seven/images/fc.png",
        "themes/seven/images/list-item-rtl.png",
        "themes/seven/images/list-item.png",
        "themes/seven/images/task-check.png",
        "themes/seven/images/task-item-rtl.png",
        "themes/seven/images/task-item.png",
        "themes/seven/images/ui-icons-222222-256x240.png",
        "themes/seven/images/ui-icons-454545-256x240.png",
        "themes/seven/images/ui-icons-800000-256x240.png",
        "themes/seven/images/ui-icons-888888-256x240.png",
        "themes/seven/images/ui-icons-ffffff-256x240.png",
        "themes/seven/jquery.ui.theme.css",
        "themes/seven/logo.png",
        "themes/seven/maintenance-page.tpl.php",
        "themes/seven/page.tpl.php",
        "themes/seven/reset.css",
        "themes/seven/screenshot.png",
        "themes/seven/seven.info",
        "themes/seven/style-rtl.css",
        "themes/seven/style.css",
        "themes/seven/template.php",
        "themes/seven/vertical-tabs-rtl.css",
        "themes/seven/vertical-tabs.css",
        "themes/stark/README.txt",
        "themes/stark/layout.css",
        "themes/stark/logo.png",
        "themes/stark/screenshot.png",
        "themes/stark/stark.info",
        "update.php",
        "web.config",
        "xmlrpc.php"
    ]
}